{
  "1683735485950": {
    "originalName": "seal.png",
    "fileName": "1683735485950.png",
    "size": 236736,
    "url": "${appResourceUrl}/images/widget_1/1683735485950.png",
    "created": 1683735485950,
    "resourcesPrefix": "images/widget_1",
    "referedIds": [],
    "originId": "1683735485950",
    "fileFormat": "image/png",
    "isUseCompress": false,
    "originalWidth": 1000,
    "originalHeight": 1000
  }
}